-------------------------------------------------------------------------------
Test set: com.telstra.codechallenge.githubzerofollowers.MicroServiceMainTest
-------------------------------------------------------------------------------
Tests run: 3, Failures: 0, Errors: 0, Skipped: 0, Time elapsed: 30.788 s - in com.telstra.codechallenge.githubzerofollowers.MicroServiceMainTest
